…
``` r
library(nortest)
data <- readxl::read_xlsx("shootings_us.xlsx")
```

Now, let’s have a look to the dataset and it’s structure:

``` r
as_tibble(data)
```

    ## # A tibble: 1,750 × 8
    ##    `Incident ID` `Incident Date`     State       `City Or County` Address Killed
    ##            <dbl> <dttm>              <chr>       <chr>            <chr>    <dbl>
    ##  1       2666201 2023-07-28 00:00:00 Florida     Tampa            E Shad…      1
    ##  2       2666189 2023-07-28 00:00:00 Washington  Seattle          9232 R…      0
    ##  3       2666500 2023-07-28 00:00:00 Florida     Fort Lauderdale  NW 19t…      0
    ##  4       2666195 2023-07-28 00:00:00 Illinois    Chicago Heights… 1400 b…      1
    ##  5       2663533 2023-07-25 00:00:00 Pennsylvan… Pittsburgh       Nichol…      0
    ##  6       2662351 2023-07-24 00:00:00 Oklahoma    Tulsa            11107 …      3
    ##  7       2662711 2023-07-24 00:00:00 New York    Bronx            255 E …      1
    ##  8       2661359 2023-07-23 00:00:00 Florida     Tampa            7402 N…      0
    ##  9       2661332 2023-07-23 00:00:00 Alabama     Birmingham       1700 b…      0
    ## 10       2661056 2023-07-23 00:00:00 Texas       Houston          9261 G…      1
    ## # ℹ 1,740 more rows
    ## # ℹ 2 more variables: Injured <dbl>, State_Gov <chr>
…
## Summarizing and preparing data for the analysis

The actual dataset is organized by single incidents, but we want now to
have it organized by state and the number of total incidents ocurred:

``` r
data_summary <- plyr::ddply(data, c("state", "state_gov"), summarise, shootings = length(state))
# We'll create a new dataset to have each state, the goverment support and the total number of shooting incidents
as_tibble(data_summary)
```

    ## # A tibble: 48 × 3
    ##    state                state_gov  shootings
    ##    <chr>                <chr>          <int>
    ##  1 Alabama              Republican        46
    ##  2 Alaska               Republican         1
    ##  3 Arizona              Democrat          26
    ##  4 Arkansas             Republican        14
    ##  5 California           Democrat         124
    ##  6 Colorado             Democrat          32
    ##  7 Connecticut          Democrat           6
    ##  8 Delaware             Democrat           8
    ##  9 District of Columbia Democrat          31
    ## 10 Florida              Republican        85
    ## # ℹ 38 more rows
…
